Data basics
…
Good Job. flights describes every flight that departed from New York City in 2013. The data comes from the US Bureau of Transportation Statistics, and is documented in ?flights.

The tibble display

You might notice that flights looks a little differently than mpg. flights shows only the first few rows of the data frame and only the columns that fit on one screen.

flights prints differently because it’s a tibble. Tibbles are data frames that are slightly tweaked to be more user-friendly. For example, R doesn’t try to show you all of a tibble at once (but it will try to show you all of a data frame that is not a tibble).

You can use as_tibble() to return a tibble version of any data frame. For example, this would return a tibble version of mpg: as_tibble(mpg).

Data types

Type codes

## # A tibble: 336,776 x 19
##     year month   day dep_time sched_dep_time dep_delay arr_time sched_arr_time
##    <int> <int> <int>    <int>          <int>     <dbl>    <int>          <int>
##  1  2013     1     1      517            515         2      830            819
##  2  2013     1     1      533            529         4      850            830
##  3  2013     1     1      542            540         2      923            850
##  4  2013     1     1      544            545        -1     1004           1022
##  5  2013     1     1      554            600        -6      812            837
##  6  2013     1     1      554            558        -4      740            728
##  7  2013     1     1      555            600        -5      913            854
##  8  2013     1     1      557            600        -3      709            723
##  9  2013     1     1      557            600        -3      838            846
## 10  2013     1     1      558            600        -2      753            745
## # ... with 336,766 more rows, and 11 more variables: arr_delay <dbl>,
## #   carrier <chr>, flight <int>, tailnum <chr>, origin <chr>, dest <chr>,
## #   air_time <dbl>, distance <dbl>, hour <dbl>, minute <dbl>, time_hour <dttm>
…
